[
    {
        "word": "mati",
        "taboo": [
            "zlote dziecko",
            "prezydent"
        ]
    },
    {
        "word": "ferie",
        "taboo": [
            "wolne",
            "szkola"
        ]
    },
    {
        "word": "wakacje",
        "taboo": [
            "wolne",
            "szkola"
        ]
    },
    {
        "word": "wyjazd",
        "taboo": [
            "chorwacja",
            "tance"
        ]
    },
    {
        "word": "impreza",
        "taboo": [
            "alkohol",
            "kac"
        ]
    },
    {
        "word": "komputer",
        "taboo": [
            "informatyka",
            "maszyna"
        ]
    },
    {
        "word": "uczelnia",
        "taboo": [
            "wydzial",
            "nauka"
        ]
    },
    {
        "word": "ksiazka",
        "taboo": [
            "literatura",
            "papier"
        ]
    },
    {
        "word": "woda",
        "taboo": [
            "pragnienie",
            "rzeka",
            "morze"
        ]
    },
    {
        "word": "sluchawki",
        "taboo": [
            "muzyka",
            "glowa"
        ]
    },
    {
        "word": "okno",
        "taboo": [
            "widok",
            "powietrze",
            "szyba"
        ]
    },
    {
        "word": "szafa",
        "taboo": [
            "ubrania",
            "lustro"
        ]
    },
    {
        "word": "usta",
        "taboo": [
            "szminka",
            "pocałunek"
        ]
    },
    {
        "word": "drewno",
        "taboo": [
            "drzewo",
            "deska"
        ]
    },
    {
        "word": "telefon",
        "taboo": [
            "wiadomosc",
            "polaczenie"
        ]
    },
    {
        "word": "karton",
        "taboo": [
            "przesylka",
            "papier"
        ]
    },
    {
        "word": "dach",
        "taboo": [
            "dom",
            "dachowka"
        ]
    },
    {
        "word": "kaloryfer",
        "taboo": [
            "cieplo",
            "piec"
        ]
    },
    {
        "word": "szczotka",
        "taboo": [
            "wlosy",
            "koltun"
        ]
    },
    {
        "word": "czapka",
        "taboo": [
            "glowa",
            "bombelek"
        ]
    },
    {
        "word": "tablica",
        "taboo": [
            "kreda",
            "szkola"
        ]
    },
    {
        "word": "poduszka",
        "taboo": [
            "sen",
            "odpoczynek"
        ]
    },
    {
        "word": "skarpetki",
        "taboo": [
            "noga",
            "stopa"
        ]
    },
    {
        "word": "szantaż",
        "taboo": [
            "wymuszenie",
            "żądanie",
            "pieniądze"
        ]
    },
    {
        "word": "dmuchac",
        "taboo": [
            "wiatr",
            "powietrze",
            "gwizdek",
            "nos"
        ]
    },
    {
        "word": "recykling",
        "taboo": [
            "kosz",
            "odpady",
            "puszki",
            "papier"
        ]
    },
    {
        "word": "detektyw",
        "taboo": [
            "śledztwo",
            "zbrodnia",
            "wskazówki",
            "Sherlock Holmes"
        ]
    },
    {
        "word": "wieżowiec",
        "taboo": [
            "imperium",
            "wysoki",
            "Nowy Jork",
            "budynek"
        ]
    },
    {
        "word": "lama",
        "taboo": [
            "południowa Ameryka",
            "alpaka",
            "bestia",
            "wełna"
        ]
    },
    {
        "word": "muzeum",
        "taboo": [
            "sztuka",
            "obrazy",
            "eksponaty",
            "budynki",
            "kolekcja"
        ]
    },
    {
        "word": "eureka!",
        "taboo": [
            "moment",
            "odkrycie",
            "wiem",
            "objawienie"
        ]
    },
    {
        "word": "wegańskie",
        "taboo": [
            "mięso",
            "wegetariańskie",
            "jeść",
            "ryby",
            "dieta"
        ]
    },
    {
        "word": "flanela",
        "taboo": [
            "koszula",
            "koszula nocna",
            "tkanina",
            "prześcieradła",
            "piżama"
        ]
    },
    {
        "word": "taczka",
        "taboo": [
            "ładunek",
            "ogrodnik",
            "śmieci"
        ]
    },
    {
        "word": "diament",
        "taboo": [
            "pierścień",
            "karaty",
            "klejnot",
            "zaręczyny"
        ]
    },
    {
        "word": "modny",
        "taboo": [
            "stylowy",
            "vogue",
            "szyk"
        ]
    },
    {
        "word": "alias",
        "taboo": [
            "pseudonim",
            "imię",
            "vel",
            "i.d.",
            "fałszywe"
        ]
    },
    {
        "word": "menu",
        "taboo": [
            "restauracja",
            "zamówienie",
            "ceny"
        ]
    },
    {
        "word": "palnik",
        "taboo": [
            "grzałka",
            "laboratorium",
            "eksperyment",
            "gaz",
            "płomień"
        ]
    },
    {
        "word": "przecinek",
        "taboo": [
            "interpunkcja",
            "znak",
            "kropka",
            "odpoczynek",
            "oddzielać"
        ]
    },
    {
        "word": "panda",
        "taboo": [
            "niedźwiedź",
            "czarno-biały",
            "bambus",
            "zoo"
        ]
    },
    {
        "word": "minuty",
        "taboo": [
            "60",
            "sekundy",
            "godziny",
            "czas",
            "spotkanie"
        ]
    },
    {
        "word": "tiara",
        "taboo": [
            "korona",
            "klejnot",
            "głowa",
            "suknia"
        ]
    },
    {
        "word": "młot pneumatyczny",
        "taboo": [
            "wiertło",
            "rozpad",
            "chodnik",
            "budowa",
            "skała"
        ]
    },
    {
        "word": "japonki",
        "taboo": [
            "sandały",
            "palce u nóg",
            "plaża",
            "klapki"
        ]
    },
    {
        "word": "szept",
        "taboo": [
            "mówić",
            "delikatnie",
            "ucho",
            "dźwięk",
            "krzyk"
        ]
    },
    {
        "word": "czarny koń",
        "taboo": [
            "niespodziewany",
            "zwycięzca",
            "niespodzianka"
        ]
    },
    {
        "word": "Big Ben",
        "taboo": [
            "londyn",
            "parlament",
            "gong",
            "zegar",
            "czas"
        ]
    },
    {
        "word": "wariograf",
        "taboo": [
            "test",
            "policja",
            "tak",
            "nie",
            "kłamstwo"
        ]
    },
    {
        "word": "śmiech",
        "taboo": [
            "śmieszne",
            "ha-ha",
            "chichot",
            "lol"
        ]
    },
    {
        "word": "prysznic",
        "taboo": [
            "łazienka",
            "woda",
            "czystość"
        ]
    },
    {
        "word": "wróżka zębuszka",
        "taboo": [
            "łóżko",
            "poduszka",
            "pieniądze",
            "ząb",
            "noc"
        ]
    },
    {
        "word": "Bracia Grimm",
        "taboo": [
            "bajki",
            "niemiecki",
            "rodzeństwo",
            "autorzy",
            "gawędziarze"
        ]
    },
    {
        "word": "miedź",
        "taboo": [
            "grosz",
            "rury",
            "metal",
            "moneta"
        ]
    },
    {
        "word": "plomba",
        "taboo": [
            "ząb",
            "ubytek",
            "dentysta"
        ]
    },
    {
        "word": "klucz",
        "taboo": [
            "drzwi",
            "otwarte",
            "samochód",
            "zamek"
        ]
    },
    {
        "word": "sfinks",
        "taboo": [
            "ogromny",
            "rzeźba",
            "piramidy",
            "człowiek",
            "kot"
        ]
    },
    {
        "word": "marionetka",
        "taboo": [
            "sznurki",
            "palec",
            "lalka",
            "drewno",
            "pinokio"
        ]
    },
    {
        "word": "guru",
        "taboo": [
            "hinduski",
            "mądry",
            "duchowy",
            "nauczyciel"
        ]
    },
    {
        "word": "Thomas dison",
        "taboo": [
            "żarówka",
            "elektryczny",
            "wynalazca",
            "filmy"
        ]
    },
    {
        "word": "budka poboru opłat",
        "taboo": [
            "autostrada",
            "płacić",
            "asystent",
            "monety",
            "bilet"
        ]
    },
    {
        "word": "autobus szkolny",
        "taboo": [
            "żółty",
            "dzieci",
            "odjazd",
            "pojazd"
        ]
    },
    {
        "word": "rzymskie koloseum",
        "taboo": [
            "arena",
            "włochy",
            "gladiatorzy"
        ]
    },
    {
        "word": "breja",
        "taboo": [
            "śnieg",
            "deszcz",
            "pogoda"
        ]
    },
    {
        "word": "tapeta",
        "taboo": [
            "wałek",
            "pasek",
            "farba",
            "wzór"
        ]
    },
    {
        "word": "jet lag",
        "taboo": [
            "lot",
            "zmęczenie",
            "podróż",
            "czas",
            "regulacja"
        ]
    },
    {
        "word": "poker",
        "taboo": [
            "karty",
            "ręka",
            "texas hold'em",
            "gra"
        ]
    },
    {
        "word": "mewa",
        "taboo": [
            "ptak",
            "plaża",
            "ocean",
            "skrzydła",
            "wysypisko"
        ]
    },
    {
        "word": "ośmiornica",
        "taboo": [
            "macki",
            "ocean",
            "ramiona",
            "8",
            "kałamarnica"
        ]
    },
    {
        "word": "marzenie",
        "taboo": [
            "myśl",
            "sen",
            "fantazja",
            "umysł"
        ]
    },
    {
        "word": "stringi",
        "taboo": [
            "bielizna",
            "skąpy",
            "tyłek",
            "bikini"
        ]
    },
    {
        "word": "uczeń",
        "taboo": [
            "klasa",
            "szkoła",
            "student"
        ]
    },
    {
        "word": "kołysanka",
        "taboo": [
            "dziecko",
            "sen",
            "śpiew",
            "niemowle"
        ]
    },
    {
        "word": "bazooka",
        "taboo": [
            "rakieta",
            "wyrzutnia",
            "wojna"
        ]
    },
    {
        "word": "kredyt",
        "taboo": [
            "karta",
            "pieniądze",
            "bank",
            "pożyczka"
        ]
    }
]